{
    "compatible-version": ["3.3.19", "3.3.20", "v3", "development"],
    "banned-out-destinations": [],
    "comment" : "whenever list of DN's below is changed, tell Andrea Sciaba' to generate new credentials for HammerCloud",
    "delegate-dn": [
        "/DC=ch/DC=cern/OU=computers/CN=crab-(preprod|prod)-tw(01|02).cern.ch|/DC=ch/DC=cern/OU=computers/CN=crab-dev-tw(01|02|03|04).cern.ch|/DC=ch/DC=cern/OU=Organic Units/OU=Users/CN=cmscrab/CN=(817881|373708)/CN=Robot: cms crab|/DC=ch/DC=cern/OU=Organic Units/OU=Users/CN=crabint1/CN=373708/CN=Robot: CMS CRAB Integration 1"],
    "htcondorPool": "cmsgwms-collector-global.cern.ch:9620,cmsgwms-collector-global.fnal.gov:9620",
    "htcondorScheddsLink": "https://gitlab.cern.ch/crab3/CRAB3ServerConfig/-/raw/master/cmsweb-shedds-config.json",

    "modes":
        [
            {
                "mode": "crab-dev",
                "backend-urls": {
                    "cacheSSL": "https://cmsweb-testbed.cern.ch:8443/crabcache",
                    "htcondorSchedds": []
                }
            },

            {
                "mode": "cmsweb-dev",
                "backend-urls": {
                    "cacheSSL": "https://cmsweb-testbed.cern.ch:8443/crabcache",
                    "htcondorSchedds": []
                }
            },

            {
                "mode": "cmsweb-test",
                "backend-urls": {
                    "cacheSSL": "https://cmsweb-test2.cern.ch/S3/crabcache_dev",
                    "htcondorSchedds": []
                }
            },

            {
                "mode": "cmsweb-test1",
                "backend-urls": {
                    "cacheSSL": "http://s3.cern.ch/crabcache_dev",
                    "htcondorSchedds": []
                }
            },

            {
                "mode": "cmsweb-preprod",
                "backend-urls": {
                    "cacheSSL": "https://cmsweb-testbed.cern.ch/S3/crabcache_prod",
                    "htcondorSchedds": []
                }
            },

            {
                "mode": "cmsweb-auth",
                "backend-urls": {
                    "cacheSSL": "https://cmsweb-auth.cern.ch:8443/crabcache",
                    "htcondorSchedds": []
                }
            },

            {
                "mode": "cmsweb-prod",
                "comment" : "currently used by cmsweb-prod.cern.ch",
                "backend-urls": {
                    "cacheSSL": "https://cmsweb.cern.ch/S3/crabcache_prod",
                    "htcondorSchedds": []
                }
            }

        ]
}
